{
  "type": "service_account",
  "project_id": "academia-vwr",
  "private_key_id": "bf43b202b0f23c3b949e02aae03f6f6ef7c459c8",
  "private_key": "-----BEGIN PRIVATE KEY-----\nMIIEvgIBADANBgkqhkiG9w0BAQEFAASCBKgwggSkAgEAAoIBAQDARnMOBgf7p0MZ\nuYOSTB8j4V/7Kxd/HaN7oEGjr2V+Zmjsras1mkip6sK4xwD3d+URDMGyOHr19HP/\nOwm9S04rj235yfrzHTIls6VVuSt4LHhJv1xQT4FEqojee5Y8LQc867cvZsssipU9\nVmX0zuZaJIDAcbVbvvBoZXXwI8oYfpeEz7vykgRvVfUPqtFInxNbl2JthafMAl2n\n34MGzlGJF6odNzDjqck0neM8yrvsr504Lr/c2XqlNNHVlY0VQIpogtTvSAUAvcLl\nh4LiNrY+l9xI/jA8+yQSU4gQNAvtrH5vxTGmcooGsxSlrFa9a+fZ1aTBzbG+oh2S\nNdJGVdiDAgMBAAECggEAEX13EtP+nugopOroqoKtJHzoV7ckRIZkLCc4QVT/pP9Y\n1Qq5M7+Mk5RM0TUdA+XOmv3vkrArkzsA4Ds1GBiFDFZYOSwj3UCPIrnUNNeKujxF\nVuQG2DFbP21J1P8l++RWr7Z7a97sZWlXyQQWcy3s6089vQO67RUR1lVAZK9Ev3SA\nGHEtVCMwnkB2+TW1wTEqI0+P4BbsrX5A+ME726O5Su7362O3zdc1TJq8cp3/FDWy\nIDAQWKHyE49c5cpMEkPS0kz7Hpwe02yD+nHXiJ6w6iWYQ2bBW5MHGrG/gcCtq7F3\nlRUXffH71Orft3tBX5b5LjsvV9Gu2XkuUtEGJ6faxQKBgQDokOp5OGW9IatP+AYX\nRQKal2I1eld2K0APJxNLKye7mWpcIfQIV5E5g0Gb/QXxYjhGxy/dGMgx7QxRAMFE\ns9i63ke50qOunRVDTsOiEZMs9+2z+EUV+gaehhjWGtBo9Vb0lDpzv+d7XHc80qUF\nLXoF2/brg50nj0/EoSQjxgYYxwKBgQDTpjkM/jbPU0nX7a5Y4g4rJkH24RFCw/P+\nB28oVv+sFnFMl4tr/Egtnu/N1hcf27N2vSq/8+oBImvcJDMVZ8l1JCptIKsPiGFu\n6FdzNOYz2XZUgMZL0vz+vhztdHf+l8BNb45pAJE1JTufYgx/1tPaxMM8xlY23shB\nBeGQ7YNeZQKBgQCAgoNuVIGzjwVQ/SaweQvFTN2R23a075VISjlZEhG0kkO5gXGN\nooW3GBaLEbfU+IdMZQjHzcfh/rENmbMyOYcLS4Sq5ABanqZ/OOjVh4yiDqYlCo1y\nZWR++G6E8PA0700LfVUHXQWWnzOsQmG5iLWiwzegUGvozkIvzzNfKS95RQKBgGJ2\njUoPJj6Tt+HdsGOnXwIR/VQ2ZspR0TwYB02UE8PiePkx82ncZ1PaAiQXepCWrEoM\nPUwp1G6MrfMvYBiQPTfjCF3Wed5zCykGrFBrhsEOZS9w7U+vK4Xzug96RKzLumoM\nAQu2eNdpp/BBNCFxNwQqz82BU/CY+j7N1p+O77PFAoGBANdcEMspmzQa7ExXlD1M\nVAADva5yalVkR24m6ea3UV9qgBL31vbTG+c08bWSRiFLYBsQyjlaRio/22oU2pRd\nqanGcBJLsel5tJbxCf4/mFQYh+bzW83qrFQv7eIYgSk8UNX9HfpHen3IBQmqtaSZ\nX8n+Mj36OihkV9B7JikbdU2X\n-----END PRIVATE KEY-----\n",
  "client_email": "colab-r-service@academia-vwr.iam.gserviceaccount.com",
  "client_id": "110811382158226098193",
  "auth_uri": "https://accounts.google.com/o/oauth2/auth",
  "token_uri": "https://oauth2.googleapis.com/token",
  "auth_provider_x509_cert_url": "https://www.googleapis.com/oauth2/v1/certs",
  "client_x509_cert_url": "https://www.googleapis.com/robot/v1/metadata/x509/colab-r-service%40academia-vwr.iam.gserviceaccount.com"
}
